{
	"carotone": {
		"name": {
			"ko": "캐롯 원",
			"en": "Carot One"
		},
		"desc": "carotone.png",
		"logo": "CAROT ONE.png",
		"homepage": "http://soundcat.com/si/csMN",
		"tel": "07070194347",
		"time": "(평일) 10시 ~ 18시"
	},
	"etymotic": {
		"name": {
			"ko": "에티모틱리서치",
			"en": "ETYMOTIC RESEARCH"
		},
		"desc": "ety.png",
		"logo": "ETYMOTIC_RESEARCH.jpg",
		"homepage": "http://soundcat.com/si/csMN",
		"tel": "07070194347",
		"time": "(평일) 10시 ~ 18시"
	},
	"eoz": {
		"name": {
			"ko": "이오지",
			"en": "EOZ"
		},
		"desc": "eoz.png",
		"logo": "EOZ.jpg",
		"homepage": "http://soundcat.com/si/csMN",
		"tel": "07070194347",
		"time": "(평일) 10시 ~ 18시"
	},
	"spidercable": {
		"name": {
			"ko": "스파이더 케이블",
			"en": "SPIDER Cable"
		},
		"desc": "spider.png",
		"logo": "spider cable.png",
		"homepage": "http://soundcat.com/si/csMN",
		"tel": "07070194347",
		"time": "(평일) 10시 ~ 18시"
	},
	"ucotech": {
		"name": {
			"ko": "유코텍",
			"en": "UCOTECH"
		},
		"desc": "ucotech.png",
		"logo": "UCOTECH.png",
		"homepage": "http://ucotech.co.kr/inquiry.htm?inq_class=2",
		"tel": "0326617600",
		"time": "(평일) 10시 ~ 18시"
	},
	"1more": {
		"name": {
			"ko": "원모어",
			"en": "1MORE"
		},
		"desc": "1more-as.png",
		"logo": "1MORE-2.jpg",
		"homepage" : "",
		"tel": "07088151818",
		"time": "(평일) 13시 ~ 18시"
	},
	"fender": {
		"name": {
			"ko": "펜더",
			"en": "Fender"
		},
		"desc": "fender.png",
		"logo": "fender.png",
		"homepage": "http://soundcat.com/si/csMN",
		"tel": "07070194347",
		"time": "(평일) 10시 ~ 18시"
	},
	"zound": {
		"name": {
			"ko": "자운드",
			"en": "ZOUND"
		},
		"desc": "zound.png",
		"logo": "ZOUND.png",
		"homepage": "http://soundcat.com/si/csMN",
		"tel": "07070194347",
		"time": "(평일) 10시 ~ 18시"
	},
	"soundmagic": {
		"name": {
			"ko": "사운드매직",
			"en": "SoundMAGIC"
		},
		"desc": "soundmagic.png",
		"logo": "SOUNDMAGIC.jpg",
		"homepage": "http://www.soundmagic.co.kr/home",
		"tel": "07082003747",
		"time": "(평일) 9시 30분 ~ 18시, (토요일) 9시30분 ~ 15시"
	},
	"tennmak": {
		"name": {
			"ko": "텐막코리아",
			"en": "TENNMAK korea"
		},
		"desc": "tennmak.png",
		"logo": "tennmak.png",
		"homepage": "http://tennmak.co.kr/product/list1.html?cate_no=45",
		"tel": "0220680368",
		"time": "(평일) 10시 ~ 18시"
	},
	"meeaudio": {
		"name": {
			"ko": "미오디오",
			"en": "MEE Audio"
		},
		"desc": "meeaudio.png",
		"logo": "MEE_AUDIO.png",
		"homepage": "http://soundcat.com/si/csMN",
		"tel": "07070194347",
		"time": "(평일) 10시 ~ 18시"
	},
	"fidue": {
		"name": {
			"ko": "피듀",
			"en": "FIDUE"
		},
		"desc": "fidue.png",
		"logo": "FIDUE.png",
		"homepage": "http://fiduekorea.com/as",
		"tel": "07078140007",
		"time": "(평일) 10시 ~ 18시"
	},
	"philips": {
		"name": {
			"ko": "필립스",
			"en": "PHILIPS"
		},
		"desc": "philips2.png",
		"logo": "PHILIPS.gif",
		"homepage": "",
		"tel": "0317423121",
		"time": "(평일) 10시 ~ 18시"
	},
	"pioneer": {
		"name": {
			"ko": "파이오니어",
			"en": "PIONEER"
		},
		"desc": "pioneer.png",
		"logo": "PIONEER.gif",
		"homepage": "",
		"tel": "0226728913",
		"time": "(평일) 10시 ~ 17시"
	},
	"dearear": {
		"name": {
			"ko": "디어이어",
			"en": "Dearear"
		},
		"desc": "dearear_as.png",
		"logo": "dearear.png",
		"homepage": "",
		"tel": "027025606",
		"time": "(평일) 10시 ~ 18시"
	},
	"sudio": {
		"name": {
			"ko": "수디오",
			"en": "SUDIO"
		},
		"desc": "sudio_as.png",
		"logo": "sudio.PNG",
		"homepage": "https://www.sudio.com/kr/",
		"tel": "027025606",
		"time": "(평일) 10시 ~ 18시"
	},
	"lypertek": {
		"name": {
			"ko": "라이퍼텍",
			"en": "LYPERTEK"
		},
		"desc": "lypertek_as.png",
		"logo": "lypertek.png",
		"homepage": "",
		"tel": "07078140007",
		"time": "(평일) 10시 ~ 18시"
	},
	"waveletdesign": {
		"name": {
			"ko": "웨이블릿디자인",
			"en": "Wavelet Design"
		},
		"desc": "waveletdesign.png",
		"logo": "waveletdesign.png",
		"homepage": "https://waveletd.blog.me/220337272780",
		"tel": "07076082289",
		"time": "(평일) 11시 ~ 17시"
	},
	"simgot": {
		"name": {
			"ko": "심갓",
			"en": "SIMGOT"
		},
		"desc": "simgot.png",
		"logo": "simgot.jpeg",
		"homepage": "http://soundcat.com/si/csMN",
		"tel": "07070194347",
		"time": "(평일) 10시 ~ 18시"
	},
	"focusrite": {
		"name": {
			"ko": "포커스라이트",
			"en": "focusrite"
		},
		"desc": "focusrite.png",
		"logo": "focusrite.png",
		"homepage": "http://soundcat.com/si/csMN",
		"tel": "07070194347",
		"time": "(평일) 10시 ~ 18시"
	},
	"midifighter": {
		"name": {
			"ko": "미디파이터",
			"en": "midifighter"
		},
		"desc": "midifighter.png",
		"logo": "midifighter.png",
		"homepage": "http://soundcat.com/si/csMN",
		"tel": "07070194347",
		"time": "(평일) 10시 ~ 18시"
	},
	"mxl": {
		"name": {
			"ko": "엠엑스엘",
			"en": "mxl"
		},
		"desc": "MXL.png",
		"logo": "mxl.png",
		"homepage": "http://soundcat.com/si/csMN",
		"tel": "07070194347",
		"time": "(평일) 10시 ~ 18시"
	},
	"se": {
		"name": {
			"ko": "에스이",
			"en": "se"
		},
		"desc": "se.png",
		"logo": "SE.png",
		"homepage": "http://soundcat.com/si/csMN",
		"tel": "07070194347",
		"time": "(평일) 10시 ~ 18시"
	},
	"CME": {
		"name": {
			"ko": "씨엠이",
			"en": "CME"
		},
		"desc": "cme.png",
		"logo": "cme.png",
		"homepage": "http://soundcat.com/si/csMN",
		"tel": "07070194347",
		"time": "(평일) 10시 ~ 18시"
	},
	"Onkyo": {
		"name": {
			"ko": "온쿄",
			"en": "Onkyo"
		},
		"desc": "onkyo.png",
		"logo": "ONKYO.png",
		"homepage": "http://www.onkyo-headphones.com/kr/index.html",
		"tel": "0218996131",
		"time": "(평일) 9시 ~ 18시"
	},
	"SONICAST" : {
		"name" : {
			"ko" : "소니캐스트",
			"en" : "SONICAST"
		},
		"desc" : "sonicast.png",
		"logo" : "sonicast.jpg",
		"homepage" : "",
		"tel" : "027025606",
		"time": "(평일) 10시 ~ 18시"
	}
}