{
	"CAROTONE" : ["carotone", "titta", "티타", "캐롯원", "캐럿원"],
	"SPIDERCABLE" : ["spidercable", "starlight", "tinyear", "powerforce", "스타라이트", "타이니이어", "파워포스", "스파이더"],
	"BEYERDYNAMIC" : ["beyerdynamic", "베이어다이나믹"],
	"UCOTECH" : ["es1103", "es1003", "il500", "il300", "ucotech", "유코텍"],
	"1MORE" : ["1more", "singledriver", "1m301", "eo302", "e1008", "e1001", "원모어", "싱글드라이버", "듀얼드라이버", "트리플드라이버", "쿼드드라이버"],
	"FENDER" : ["dxa1pro", "fxa2", "fxa5", "fxa6", "fxa7", "fender", "펜더"],
	"ZOUND" : ["zd301", "zd301:halo", "zound", "자운드"],
	"SOUNDMAGIC" : ["es19s", "soundmagic", "사운드매직"],
	"MEEAUDIO" : ["meeaudio", "m6pro", "rx18", "rx18p", "pinnaclep1", "미오디오", "m7pro"],
	"TENNMAK" : ["tennmakpro", "tennmakcello", "tennmakdulcimer", "텐막프로", "텐막첼로", "텐막덜시머", "tennmakali800", "텐막알리800"],
	"EOZ" : ["eoz", "one", "이오지", "이오지원"],
	"FIDUE" : ["fidue", "피듀", "a73", "a83", "a91", "sirius", "a65"],
	"PHILIPS" : ["philips", "필립스", "스포츠", "블루투스"],
	"PIONEER" : ["pioneer", "파이오니아", "파이오니어", "502t", "ch5t", "cl722t", "e3", "mj503", "503t", "ms5t", "es"],
	"ETYMOTIC" : ["etymotic reasearch", "er4xr", "er3sr", "er3xr", "er3se", "에티모틱", "ety", "얄포", "얄삼", "얄쓰리"],
	"DEAREAR" : ["디어이어", "dearear", "오벨", "oval", "오벌"],
	"SUDIO" : ["수디오", "sudio", "vasabla", "regent", "바사블라", "리젠트"],
	"LYPERTEK" : ["lypertek", "라이퍼텍", "mevi", "메비"],
	"WAVELETDESIGN" : ["웨이블릿디자인", "waveletdesign", "op2", "op.2", "오피2", "opus2", "오퍼스2"],
	"SIMGOT" : ["심갓", "simgot", "en700pro", "en700bass"],
	"FOCUSRITE" : ["포커스라이트", "focusrite", "scarlett", "스칼렛", "solo", "2i2", "2i4", "6i6", "18i8", "솔로"],
	"MIDIFIGHTER" : ["미디파이터", "midifighter64"],
	"MXL" : ["엠엑스엘", "mxl", "studio one reddot", "770", "440", "cr-77", "cr89", "mic mate pro", "xlr-usb"],
	"SE" : ["에스이", "se", "x1a", "x1s", "se2200", "magneto Linited Edition", "마그네토", "v3", "v7", "dual pro pop filter", "팝필터", "듀얼프로팝필터"],
	"CME" : ["씨엠이", "cme", "엑스키", "xkey air 25", "xkey air 37", "xkey37 le", "sola case", "supernova case", "수퍼노바 케이스", "솔라케이스"],
	"ONKYO" : ["온쿄", "onkyo", "a800", "h900m", "h500bt", "h500m", "e900m", "w800bt", "e700bt", "e700m", "e600m", "e300bt", "e300m", "e200bt", "e200m"],
	"SONICAST" : ["포터블코리아", "소니캐스트", "portablekorea", "sonicast", "diracmk2", "디락"]
}